^D:\UNREAL UNGINE 4\VISUAL STUDIO\TASK15,4\TASK15\X64\DEBUG\TASK15.OBJ
D:\UNREAL UNGINE 4\VISUAL STUDIO\TASK15,4\TASK15\X64\DEBUG\TASK15.ILK
D:\UNREAL UNGINE 4\VISUAL STUDIO\TASK15,4\TASK15\X64\DEBUG\TASK15.EXE
D:\UNREAL UNGINE 4\VISUAL STUDIO\TASK15,4\TASK15\X64\DEBUG\TASK15.PDB
